<?xml version="1.0" encoding="UTF-8" standalone="no"?>
<!-- Created with Inkscape (http://www.inkscape.org/) -->

<svg
   xmlns:dc="http://purl.org/dc/elements/1.1/"
   xmlns:cc="http://creativecommons.org/ns#"
   xmlns:rdf="http://www.w3.org/1999/02/22-rdf-syntax-ns#"
   xmlns:svg="http://www.w3.org/2000/svg"
   xmlns="http://www.w3.org/2000/svg"
   xmlns:sodipodi="http://sodipodi.sourceforge.net/DTD/sodipodi-0.dtd"
   xmlns:inkscape="http://www.inkscape.org/namespaces/inkscape"
   width="10cm"
   height="4.8000002cm"
   viewBox="0 0 354.33071 170.07873"
   id="svg2"
   version="1.1"
   inkscape:version="0.91 r13725"
   sodipodi:docname="plugin-flash.svg"
   inkscape:export-filename="/media/h4ck3r/GrosDisque/Fichiersdetravail/Projets_Libres/LIVRESENCOURS/manueldumo/images/plugin-flashNEW.png"
   inkscape:export-xdpi="300"
   inkscape:export-ydpi="300">
  <defs
     id="defs4" />
  <sodipodi:namedview
     id="base"
     pagecolor="#ffffff"
     bordercolor="#666666"
     borderopacity="1.0"
     inkscape:pageopacity="0.0"
     inkscape:pageshadow="2"
     inkscape:zoom="1.4"
     inkscape:cx="-49.330709"
     inkscape:cy="206.75217"
     inkscape:document-units="px"
     inkscape:current-layer="layer1"
     showgrid="false"
     units="cm"
     inkscape:window-width="1920"
     inkscape:window-height="1026"
     inkscape:window-x="0"
     inkscape:window-y="0"
     inkscape:window-maximized="1"
     fit-margin-top="0.1"
     fit-margin-left="0.1"
     fit-margin-bottom="0.1"
     fit-margin-right="0.1"
     borderlayer="true" />
  <metadata
     id="metadata7">
    <rdf:RDF>
      <cc:Work
         rdf:about="">
        <dc:format>image/svg+xml</dc:format>
        <dc:type
           rdf:resource="http://purl.org/dc/dcmitype/StillImage" />
        <dc:title></dc:title>
      </cc:Work>
    </rdf:RDF>
  </metadata>
  <g
     inkscape:label="Calque 1"
     inkscape:groupmode="layer"
     id="layer1"
     transform="translate(-2.3897126,-882.55973)">
    <rect
       style="opacity:1;fill:#ffffff;fill-opacity:1;stroke:none;stroke-width:1.5;stroke-linejoin:round;stroke-miterlimit:4;stroke-dasharray:none;stroke-dashoffset:0;stroke-opacity:1"
       id="rect4177"
       width="390.71429"
       height="198.57143"
       x="-5.4674301"
       y="870.49561" />
    <rect
       style="opacity:1;fill:#ffffff;fill-opacity:1;stroke:none;stroke-width:1.5;stroke-linejoin:round;stroke-miterlimit:4;stroke-dasharray:none;stroke-dashoffset:0;stroke-opacity:1"
       id="rect4176"
       width="380.71429"
       height="188.57143"
       x="-9.7531452"
       y="874.06702" />
    <rect
       style="opacity:1;fill:#ffffff;fill-opacity:1;stroke:#000000;stroke-width:1.79815888;stroke-linejoin:round;stroke-miterlimit:4;stroke-dasharray:none;stroke-dashoffset:0;stroke-opacity:1"
       id="rect4136"
       width="346.32889"
       height="160.6077"
       x="6.7099924"
       y="886.55072"
       ry="8.4530382" />
    <g
       id="g4189"
       transform="matrix(0.61950081,-0.63030542,0.63393757,0.61595138,117.47486,725.87076)">
      <path
         id="rect4148-3"
         d="m 37.079917,306.64048 c -0.95342,0 -1.72193,0.76699 -1.72193,1.72041 l 0,4.42652 -4.37632,0 c -0.95343,0 -1.72042,0.76699 -1.72042,1.72041 0,0.95342 0.76699,1.72041 1.72042,1.72041 l 4.37632,0 0,4.62275 c 0,0.95341 0.76851,1.72041 1.72193,1.72041 0.95341,0 1.72041,-0.767 1.72041,-1.72041 l 0,-4.62275 4.67142,0 c 0.95342,0 1.72041,-0.76699 1.72041,-1.72041 0,-0.95342 -0.76699,-1.72041 -1.72041,-1.72041 l -4.67142,0 0,-4.42652 c 0,-0.95342 -0.767,-1.72041 -1.72041,-1.72041 z"
         style="opacity:1;fill:#000000;fill-opacity:1;stroke:none;stroke-width:3.54330707;stroke-linejoin:round;stroke-miterlimit:4;stroke-dasharray:none;stroke-dashoffset:0;stroke-opacity:1"
         inkscape:connector-curvature="0" />
      <rect
         style="opacity:1;fill:#000000;fill-opacity:1;stroke:none;stroke-width:3.54330707;stroke-linejoin:round;stroke-miterlimit:4;stroke-dasharray:none;stroke-dashoffset:0;stroke-opacity:1"
         id="rect4192"
         width="13.768497"
         height="3.0596659"
         x="227.25305"
         y="196.33365"
         transform="matrix(0.69891616,0.71520361,-0.71520361,0.69891616,0,0)"
         ry="1.529833" />
      <flowRoot
         xml:space="preserve"
         id="flowRoot4194"
         style="font-style:normal;font-weight:normal;font-size:40px;line-height:125%;font-family:sans-serif;letter-spacing:0px;word-spacing:0px;fill:#000000;fill-opacity:1;stroke:none;stroke-width:1px;stroke-linecap:butt;stroke-linejoin:miter;stroke-opacity:1"
         transform="matrix(0.69891616,0.71520361,-0.71520361,0.69891616,118.99393,338.67144)"><flowRegion
           id="flowRegion4196"><rect
             id="rect4198"
             width="145.46196"
             height="150.00766"
             x="43.941635"
             y="98.140587" /></flowRegion><flowPara
           id="flowPara4200" /></flowRoot>      <text
         xml:space="preserve"
         style="font-style:normal;font-weight:normal;font-size:40px;line-height:125%;font-family:sans-serif;letter-spacing:0px;word-spacing:0px;fill:#000000;fill-opacity:1;stroke:none;stroke-width:1px;stroke-linecap:butt;stroke-linejoin:miter;stroke-opacity:1"
         x="252.14975"
         y="141.14725"
         id="text4218"
         sodipodi:linespacing="125%"
         transform="matrix(0.69891616,0.71520361,-0.71520361,0.69891616,0,0)"><tspan
           sodipodi:role="line"
           id="tspan4220"
           x="252.14975"
           y="141.14725" /></text>
    </g>
    <text
       xml:space="preserve"
       style="font-style:normal;font-weight:normal;font-size:11.27164936px;line-height:125%;font-family:sans-serif;letter-spacing:0px;word-spacing:0px;fill:#000000;fill-opacity:1;stroke:none;stroke-width:1px;stroke-linecap:butt;stroke-linejoin:miter;stroke-opacity:1"
       x="168.86855"
       y="898.21252"
       id="text4620"
       sodipodi:linespacing="125%"><tspan
         sodipodi:role="line"
         id="tspan4622"
         x="168.86855"
         y="898.21252"
         style="font-style:italic;font-variant:normal;font-weight:normal;font-stretch:normal;font-family:sans-serif;-inkscape-font-specification:'sans-serif Italic'">Firefox</tspan></text>
    <circle
       style="opacity:1;fill:#b3b3b3;fill-opacity:1;stroke:none;stroke-width:1.5;stroke-linejoin:round;stroke-miterlimit:4;stroke-dasharray:none;stroke-dashoffset:0;stroke-opacity:1"
       id="path4626"
       cx="17.679756"
       cy="912.28625"
       r="8.0744638" />
    <text
       xml:space="preserve"
       style="font-style:normal;font-weight:normal;font-size:18.77405167px;line-height:125%;font-family:sans-serif;letter-spacing:0px;word-spacing:0px;fill:#000000;fill-opacity:1;stroke:none;stroke-width:1px;stroke-linecap:butt;stroke-linejoin:miter;stroke-opacity:1"
       x="12.782692"
       y="793.26776"
       id="text4628"
       sodipodi:linespacing="125%"
       transform="scale(0.86334276,1.1582885)"><tspan
         sodipodi:role="line"
         id="tspan4630"
         x="12.782692"
         y="793.26776">←</tspan></text>
    <rect
       style="opacity:1;fill:#b3b3b3;fill-opacity:1;stroke:#000000;stroke-width:0.94038957;stroke-linejoin:round;stroke-miterlimit:4;stroke-dasharray:none;stroke-dashoffset:0;stroke-opacity:1"
       id="rect4652"
       width="199.72081"
       height="14.77755"
       x="46.2248"
       y="904.85199"
       ry="0.60639453" />
    <text
       xml:space="preserve"
       style="font-style:normal;font-weight:normal;font-size:11.41806126px;line-height:125%;font-family:sans-serif;letter-spacing:0px;word-spacing:0px;fill:#000000;fill-opacity:1;stroke:none;stroke-width:1px;stroke-linecap:butt;stroke-linejoin:miter;stroke-opacity:1"
       x="30.92318"
       y="1490.1842"
       id="text4632"
       sodipodi:linespacing="125%"
       transform="scale(1.6283157,0.61413153)"><tspan
         sodipodi:role="line"
         id="tspan4634"
         x="30.92318"
         y="1490.1842">i</tspan></text>
    <circle
       style="opacity:1;fill:none;fill-opacity:1;stroke:#000000;stroke-width:0.60322863;stroke-linejoin:round;stroke-miterlimit:4;stroke-dasharray:none;stroke-dashoffset:0;stroke-opacity:1"
       id="path4636"
       cx="52.928638"
       cy="912.5658"
       r="3.7881327" />
    <rect
       style="opacity:1;fill:none;fill-opacity:1;stroke:#000000;stroke-width:0.83208144;stroke-linejoin:round;stroke-miterlimit:4;stroke-dasharray:none;stroke-dashoffset:0;stroke-opacity:1"
       id="rect4638"
       width="4.2545509"
       height="4.7746563"
       x="60.37936"
       y="909.39874"
       ry="2.3873281" />
    <rect
       style="opacity:1;fill:#000000;fill-opacity:1;stroke:none;stroke-width:1.5;stroke-linejoin:round;stroke-miterlimit:4;stroke-dasharray:none;stroke-dashoffset:0;stroke-opacity:1"
       id="rect4640"
       width="6.2412667"
       height="4.9410024"
       x="59.360001"
       y="911.65594"
       ry="0" />
    <text
       xml:space="preserve"
       style="font-style:normal;font-weight:normal;font-size:10.73284912px;line-height:125%;font-family:sans-serif;letter-spacing:0px;word-spacing:0px;fill:#000000;fill-opacity:1;stroke:none;stroke-width:1px;stroke-linecap:butt;stroke-linejoin:miter;stroke-opacity:1"
       x="81.023163"
       y="915.45996"
       id="text4642"
       sodipodi:linespacing="125%"><tspan
         sodipodi:role="line"
         id="tspan4644"
         x="81.023163"
         y="915.45996">https://adobe.com/softwar</tspan></text>
    <rect
       style="opacity:1;fill:#b3b3b3;fill-opacity:1;stroke:#000000;stroke-width:0.94038957;stroke-linejoin:round;stroke-miterlimit:4;stroke-dasharray:none;stroke-dashoffset:0;stroke-opacity:1"
       id="rect4652-3"
       width="68.896164"
       height="14.60548"
       x="248.63669"
       y="905.07043"
       ry="0.59933347" />
    <circle
       style="opacity:1;fill:none;fill-opacity:1;stroke:#000000;stroke-width:1.20657098;stroke-linejoin:round;stroke-miterlimit:4;stroke-dasharray:none;stroke-dashoffset:0;stroke-opacity:1"
       id="path4648"
       cx="254.73772"
       cy="910.8205"
       r="3.0941494" />
    <rect
       style="opacity:1;fill:#000000;fill-opacity:1;stroke:none;stroke-width:1.43700004;stroke-linejoin:round;stroke-miterlimit:4;stroke-dasharray:none;stroke-dashoffset:0;stroke-opacity:1"
       id="rect4650"
       width="6.6944103"
       height="1.6242946"
       x="737.948"
       y="594.37091"
       ry="0.81214732"
       transform="matrix(0.81513972,0.5792644,-0.5792644,0.81513972,0,0)" />
    <path
       sodipodi:type="star"
       style="opacity:1;fill:#000000;fill-opacity:1;stroke:none;stroke-width:1.5;stroke-linejoin:round;stroke-miterlimit:4;stroke-dasharray:none;stroke-dashoffset:0;stroke-opacity:1"
       id="path4646"
       sodipodi:sides="5"
       sodipodi:cx="237.20567"
       sodipodi:cy="912.4198"
       sodipodi:r1="5.3705859"
       sodipodi:r2="2.6852932"
       sodipodi:arg1="1.3633001"
       sodipodi:arg2="1.9916186"
       inkscape:flatsided="false"
       inkscape:rounded="0"
       inkscape:randomized="0"
       d="m 238.31207,917.67519 -2.20337,-2.80438 -3.5593,0.22524 1.98624,-2.96213 -1.3141,-3.31549 3.43093,0.97368 2.74715,-2.27433 0.13419,3.56389 3.01193,1.90989 -3.348,1.22893 z"
       inkscape:transform-center-x="-0.34187047"
       inkscape:transform-center-y="0.17664562" />
    <rect
       style="opacity:1;fill:#b3b3b3;fill-opacity:1;stroke:#000000;stroke-width:0.94038957;stroke-linejoin:round;stroke-miterlimit:4;stroke-dasharray:none;stroke-dashoffset:0;stroke-opacity:1"
       id="rect4669"
       width="1.4553648"
       height="14.553648"
       x="227.13785"
       y="905.07587"
       ry="0.72768241" />
    <circle
       style="opacity:1;fill:#b3b3b3;fill-opacity:1;stroke:none;stroke-width:1.5;stroke-linejoin:round;stroke-miterlimit:4;stroke-dasharray:none;stroke-dashoffset:0;stroke-opacity:1"
       id="path4626-6"
       cx="-35.728558"
       cy="912.44464"
       r="8.0744638"
       transform="scale(-1,1)" />
    <text
       xml:space="preserve"
       style="font-style:normal;font-weight:normal;font-size:18.77405167px;line-height:125%;font-family:sans-serif;letter-spacing:0px;word-spacing:0px;fill:#000000;fill-opacity:1;stroke:none;stroke-width:1px;stroke-linecap:butt;stroke-linejoin:miter;stroke-opacity:1"
       x="-49.079544"
       y="793.40442"
       id="text4628-7"
       sodipodi:linespacing="125%"
       transform="scale(-0.86334276,1.1582885)"><tspan
         sodipodi:role="line"
         id="tspan4630-5"
         x="-49.079544"
         y="793.40442">←</tspan></text>
    <path
       style="fill:#cccccc;fill-rule:evenodd;stroke:#000000;stroke-width:1.50947297px;stroke-linecap:butt;stroke-linejoin:miter;stroke-opacity:1"
       d="m 72.116062,917.9258 -5.23732,6.05705 -43.183334,0 0,99.70915 236.204752,0 0.4241,-99.70771 -183.211373,0 z"
       id="path4945"
       inkscape:connector-curvature="0"
       sodipodi:nodetypes="cccccccc" />
    <text
       xml:space="preserve"
       style="font-style:normal;font-weight:normal;font-size:8.88587856px;line-height:125%;font-family:sans-serif;letter-spacing:0px;word-spacing:0px;fill:#000000;fill-opacity:1;stroke:none;stroke-width:1px;stroke-linecap:butt;stroke-linejoin:miter;stroke-opacity:1"
       x="29.740849"
       y="941.35663"
       id="text4951"
       sodipodi:linespacing="125%"><tspan
         sodipodi:role="line"
         id="tspan4953"
         x="29.740849"
         y="941.35663">« Adobe Flash » est activé sur http://adobe.com.</tspan><tspan
         sodipodi:role="line"
         x="29.740849"
         y="952.46399"
         id="tspan4202" /><tspan
         sodipodi:role="line"
         x="29.740849"
         y="963.57135"
         id="tspan4200">En savoir plus ...</tspan></text>
    <text
       xml:space="preserve"
       style="font-style:normal;font-weight:normal;font-size:10.51787186px;line-height:125%;font-family:sans-serif;letter-spacing:0px;word-spacing:0px;fill:#000000;fill-opacity:1;stroke:none;stroke-width:1px;stroke-linecap:butt;stroke-linejoin:miter;stroke-opacity:1"
       x="35.843384"
       y="1005.0497"
       id="text5001"
       sodipodi:linespacing="125%"><tspan
         sodipodi:role="line"
         id="tspan5003"
         x="35.843384"
         y="1005.0497"
         style="font-style:normal;font-variant:normal;font-weight:bold;font-stretch:normal;font-family:sans-serif;-inkscape-font-specification:'sans-serif Bold'">Bloquer le plugin    Laisser activé</tspan></text>
    <rect
       style="opacity:1;fill:none;fill-opacity:1;stroke:#000000;stroke-width:1.5;stroke-linejoin:round;stroke-miterlimit:4;stroke-dasharray:none;stroke-dashoffset:0;stroke-opacity:1"
       id="rect5005"
       width="107.16194"
       height="20.089817"
       x="34.027336"
       y="991.76837"
       ry="0" />
    <rect
       style="opacity:1;fill:none;fill-opacity:1;stroke:#000000;stroke-width:1.5;stroke-linejoin:round;stroke-miterlimit:4;stroke-dasharray:none;stroke-dashoffset:0;stroke-opacity:1"
       id="rect5005-1"
       width="90.703056"
       height="20.253014"
       x="148.75607"
       y="991.58105"
       ry="0" />
    <rect
       style="opacity:1;fill:#000000;fill-opacity:1;stroke:none;stroke-width:1.70000005;stroke-linejoin:round;stroke-miterlimit:4;stroke-dasharray:none;stroke-dashoffset:0;stroke-opacity:1"
       id="rect4181"
       width="8.613905"
       height="6.6476879"
       x="68.103996"
       y="910.63367"
       ry="0" />
    <rect
       style="opacity:1;fill:#000000;fill-opacity:1;stroke:none;stroke-width:1.70000005;stroke-linejoin:round;stroke-miterlimit:4;stroke-dasharray:none;stroke-dashoffset:0;stroke-opacity:1"
       id="rect4183"
       width="2.9025114"
       height="2.0598469"
       x="69.087105"
       y="908.66742" />
    <rect
       style="opacity:1;fill:#000000;fill-opacity:1;stroke:none;stroke-width:1.70000005;stroke-linejoin:round;stroke-miterlimit:4;stroke-dasharray:none;stroke-dashoffset:0;stroke-opacity:1"
       id="rect4183-3"
       width="2.9025114"
       height="2.0598469"
       x="72.925911"
       y="908.62061" />
  </g>
</svg>
